{
    "version": "0.1.9",
    "webAPIPort": 80,
    "debugLevel": 0,
    "refreshInterval": 60,
    "showSummaryAfterRefresh": true,
    "baseUrl": "https://www.hoerzu.de/text/tv-programm/sender.php",
    "channels": "65_Eurosport 1,504_Eurosport 2,71_ARD,37_ZDF,51_BR,59_SRF1,60_SRF2,54_ORF1,55_ORF2,757_ORF3,759_ORF Sport+",
    "dayTime": "ganztags",
    "whitelistTitleElements": "Ski;Biathlon;Alpin",
    "MinScoring": "0"    
}
